%YAML 1.1
%TAG !u! tag:unity3d.com,2011:
--- !u!129 &1
PlayerSettings:
  m_ObjectHideFlags: 0
  serializedVersion: 20
  productGUID: 00000000000000000000000000000000
  AndroidProfiler: 0
  AndroidFilterTouchesWhenObscured: 0
  AndroidEnableSustainedPerformanceMode: 0
  defaultScreenOrientation: 0
  targetDevice: 2
  useOnDemandResources: 0
  accelerometerFrequency: 60
  companyName: DefaultCompany
  productName: FUEGO FATUO
  defaultCursor: {fileID: 0}
  cursorHotspot: {x: 0, y: 0}
  m_SplashScreenBackgroundColor: {r: 0.13725491, g: 0.12156863, b: 0.1254902, a: 1}
  m_ShowUnitySplashScreen: 1
  m_ShowUnitySplashLogo: 1
  m_SplashScreenOverlayOpacity: 1
  m_SplashScreenAnimation: 1
  m_SplashScreenLogoStyle: 1
  m_SplashScreenDrawMode: 0
  m_SplashScreenBackgroundAnimationZoom: 1
  m_SplashScreenLogoAnimationZoom: 1
  m_SplashScreenBackgroundLandscapeAspect: 1
  m_SplashScreenBackgroundPortraitAspect: 1
  m_SplashScreenBackgroundLandscapeUvs:
    serializedVersion: 2
    x: 0
    y: 0
    width: 1
    height: 1
  m_SplashScreenBackgroundPortraitUvs:
    serializedVersion: 2
    x: 0
    y: 0
    width: 1
    height: 1
  m_SplashScreenLogos: []
  m_VirtualRealitySplashScreen: {fileID: 2800000, guid: e0866a3fe6007224a9e3078d831ce6fc, type: 3}
  m_HolographicTrackingLossScreen: {fileID: 0}
  defaultScreenWidth: 1024
  defaultScreenHeight: 768
  defaultScreenWidthWeb: 960
  defaultScreenHeightWeb: 600
  m_StereoRenderingPath: 0
  m_ActiveColorSpace: 0
  m_MTRendering: 1
  mipStripping: 0
  numberOfMipsStripped: 0
  m_StackTraceTypes: 010000000100000001000000010000000100000001000000
  iosShowActivityIndicatorOnLoading: -1
  androidShowActivityIndicatorOnLoading: -1
  iosUseCustomAppBackgroundBehavior: 0
  iosAllowHTTPDownload: 1
  allowedAutorotateToPortrait: 1
  allowedAutorotateToPortraitUpsideDown: 1
  allowedAutorotateToLandscapeRight: 1
  allowedAutorotateToLandscapeLeft: 1
  useOSAutorotation: 1
  use32BitDisplayBuffer: 1
  preserveFramebufferAlpha: 0
  disableDepthAndStencilBuffers: 0
  androidStartInFullscreen: 1
  androidRenderOutsideSafeArea: 1
  androidUseSwappy: 0
  androidBlitType: 0
  defaultIsNativeResolution: 1
  macRetinaSupport: 0
  runInBackground: 1
  captureSingleScreen: 0
  muteOtherAudioSources: 0
  Prepare IOS For Recording: 0
  Force IOS Speakers When Recording: 0
  deferSystemGesturesMode: 0
  hideHomeButton: 0
  submitAnalytics: 1
  usePlayerLog: 1
  bakeCollisionMeshes: 0
  forceSingleInstance: 0
  useFlipModelSwapchain: 1
  resizableWindow: 0
  useMacAppStoreValidation: 0
  macAppStoreCategory: public.app-category.games
  gpuSkinning: 0
  xboxPIXTextureCapture: 0
  xboxEnableAvatar: 0
  xboxEnableKinect: 0
  xboxEnableKinectAutoTracking: 0
  xboxEnableFitness: 0
  visibleInBackground: 0
  allowFullscreenSwitch: 1
  fullscreenMode: 1
  xboxSpeechDB: 0
  xboxEnableHeadOrientation: 0
  xboxEnableGuest: 0
  xboxEnablePIXSampling: 0
  metalFramebufferOnly: 0
  xboxOneResolution: 0
  xboxOneSResolution: 0
  xboxOneXResolution: 3
  xboxOneMonoLoggingLevel: 0
  xboxOneLoggingLevel: 1
  xboxOneDisableEsram: 0
  xboxOneEnableTypeOptimization: 0
  xboxOnePresentImmediateThreshold: 0
  switchQueueCommandMemory: 0
  switchQueueControlMemory: 16384
  switchQueueComputeMemory: 262144
  switchNVNShaderPoolsGranularity: 33554432
  switchNVNDefaultPoolsGranularity: 16777216
  switchNVNOtherPoolsGranularity: 16777216
  switchNVNMaxPublicTextureIDCount: 0
  switchNVNMaxPublicSamplerIDCount: 0
  stadiaPresentMode: 0
  stadiaTargetFramerate: 0
  vulkanNumSwapchainBuffers: 3
  vulkanEnableSetSRGBWrite: 0
  m_SupportedAspectRatios:
    4:3: 1
    5:4: 1
    16:10: 1
    16:9: 1
    Others: 1
  bundleVersion: 9.4
  preloadedAssets: []
  metroInputSource: 0
  wsaTransparentSwapchain: 0
  m_HolographicPauseOnTrackingLoss: 1
  xboxOneDisableKinectGpuReservation: 0
  xboxOneEnable7thCore: 0
  vrSettings:
    cardboard:
      depthFormat: 0
      enableTransitionView: 0
    daydream:
      depthFormat: 0
      useSustainedPerformanceMode: 0
      enableVideoLayer: 0
      useProtectedVideoMemory: 0
      minimumSupportedHeadTracking: 0
      maximumSupportedHeadTracking: 1
    hololens:
      depthFormat: 1
      depthBufferSharingEnabled: 0
    lumin:
      depthFormat: 0
      frameTiming: 2
      enableGLCache: 0
      glCacheMaxBlobSize: 524288
      glCacheMaxFileSize: 8388608
    oculus:
      sharedDepthBuffer: 0
      dashSupport: 0
      lowOverheadMode: 0
      protectedContext: 0
      v2Signing: 1
    enable360StereoCapture: 0
  isWsaHolographicRemotingEnabled: 0
  enableFrameTimingStats: 0
  useHDRDisplay: 0
  D3DHDRBitDepth: 0
  m_ColorGamuts: 00000000
  targetPixelDensity: 30
  resolutionScalingMode: 0
  androidSupportedAspectRatio: 1
  androidMaxAspectRatio: 2.1
  applicationIdentifier:
    Android: com.vuforia.engine.VuforiaEngine
    Lumin: com.PTCInc.VuforiaEngine
    Standalone: com.PTCInc.VuforiaEngine
    iPhone: com.vuforia.engine.VuforiaEngine
  buildNumber:
    iPhone: 0
  AndroidBundleVersionCode: 94
  AndroidMinSdkVersion: 19
  AndroidTargetSdkVersion: 0
  AndroidPreferredInstallLocation: 1
  aotOptions: 
  stripEngineCode: 1
  iPhoneStrippingLevel: 0
  iPhoneScriptCallOptimization: 0
  ForceInternetPermission: 0
  ForceSDCardPermission: 0
  CreateWallpaper: 0
  APKExpansionFiles: 0
  keepLoadedShadersAlive: 0
  StripUnusedMeshComponents: 0
  VertexChannelCompressionMask: 214
  iPhoneSdkVersion: 988
  iOSTargetOSVersionString: 11.0
  tvOSSdkVersion: 0
  tvOSRequireExtendedGameController: 0
  tvOSTargetOSVersionString: 11.0
  uIPrerenderedIcon: 0
  uIRequiresPersistentWiFi: 0
  uIRequiresFullScreen: 1
  uIStatusBarHidden: 1
  uIExitOnSuspend: 0
  uIStatusBarStyle: 0
  appleTVSplashScreen: {fileID: 0}
  appleTVSplashScreen2x: {fileID: 0}
  tvOSSmallIconLayers: []
  tvOSSmallIconLayers2x: []
  tvOSLargeIconLayers: []
  tvOSLargeIconLayers2x: []
  tvOSTopShelfImageLayers: []
  tvOSTopShelfImageLayers2x: []
  tvOSTopShelfImageWideLayers: []
  tvOSTopShelfImageWideLayers2x: []
  iOSLaunchScreenType: 0
  iOSLaunchScreenPortrait: {fileID: 0}
  iOSLaunchScreenLandscape: {fileID: 0}
  iOSLaunchScreenBackgroundColor:
    serializedVersion: 2
    rgba: 0
  iOSLaunchScreenFillPct: 100
  iOSLaunchScreenSize: 100
  iOSLaunchScreenCustomXibPath: 
  iOSLaunchScreeniPadType: 0
  iOSLaunchScreeniPadImage: {fileID: 0}
  iOSLaunchScreeniPadBackgroundColor:
    serializedVersion: 2
    rgba: 0
  iOSLaunchScreeniPadFillPct: 100
  iOSLaunchScreeniPadSize: 100
  iOSLaunchScreeniPadCustomXibPath: 
  iOSUseLaunchScreenStoryboard: 0
  iOSLaunchScreenCustomStoryboardPath: 
  iOSDeviceRequirements: []
  iOSURLSchemes: []
  iOSBackgroundModes: 0
  iOSMetalForceHardShadows: 0
  metalEditorSupport: 1
  metalAPIValidation: 1
  iOSRenderExtraFrameOnPause: 1
  appleDeveloperTeamID: 
  iOSManualSigningProvisioningProfileID: 
  tvOSManualSigningProvisioningProfileID: 
  iOSManualSigningProvisioningProfileType: 0
  tvOSManualSigningProvisioningProfileType: 0
  appleEnableAutomaticSigning: 0
  iOSRequireARKit: 0
  iOSAutomaticallyDetectAndAddCapabilities: 1
  appleEnableProMotion: 0
  clonedFromGUID: 8e2f537bc1fb0424488e5e9e9bdc4186
  templatePackageId: 
  templateDefaultScene: 
  AndroidTargetArchitectures: 5
  AndroidSplashScreenScale: 0
  androidSplashScreen: {fileID: 0}
  AndroidKeystoreName: '{inproject}: '
  AndroidKeyaliasName: 
  AndroidBuildApkPerCpuArchitecture: 0
  AndroidTVCompatibility: 0
  AndroidIsGame: 1
  AndroidEnableTango: 0
  androidEnableBanner: 1
  androidUseLowAccuracyLocation: 0
  androidUseCustomKeystore: 0
  m_AndroidBanners:
  - width: 320
    height: 180
    banner: {fileID: 0}
  androidGamepadSupportLevel: 0
  AndroidMinifyWithR8: 0
  AndroidMinifyRelease: 0
  AndroidMinifyDebug: 0
  AndroidValidateAppBundleSize: 1
  AndroidAppBundleSizeToValidate: 150
  m_BuildTargetIcons:
  - m_BuildTarget: 
    m_Icons:
    - serializedVersion: 2
      m_Icon: {fileID: 0}
      m_Width: 128
      m_Height: 128
      m_Kind: 0
  m_BuildTargetPlatformIcons:
  - m_BuildTarget: Android
    m_Icons:
    - m_Textures:
      - {fileID: 2800000, guid: b15ee11232b424d68898398fe3cab2d0, type: 3}
      m_Width: 192
      m_Height: 192
      m_Kind: 0
      m_SubKind: 
    - m_Textures:
      - {fileID: 2800000, guid: fe689abc1067e4869a58c87d14482078, type: 3}
      m_Width: 144
      m_Height: 144
      m_Kind: 0
      m_SubKind: 
    - m_Textures:
      - {fileID: 2800000, guid: 827b731c62d8d42c093899fa44179bb2, type: 3}
      m_Width: 96
      m_Height: 96
      m_Kind: 0
      m_SubKind: 
    - m_Textures:
      - {fileID: 2800000, guid: d85ccead4ae714b0682b281b94267e7f, type: 3}
      m_Width: 72
      m_Height: 72
      m_Kind: 0
      m_SubKind: 
    - m_Textures:
      - {fileID: 2800000, guid: 6fae8ff752f494bacb3c562bed7dea2d, type: 3}
      m_Width: 48
      m_Height: 48
      m_Kind: 0
      m_SubKind: 
    - m_Textures:
      - {fileID: 2800000, guid: 98e9bf2eec31e492d858fd08e8223ca4, type: 3}
      m_Width: 36
      m_Height: 36
      m_Kind: 0
      m_SubKind: 
    - m_Textures:
      - {fileID: 2800000, guid: b15ee11232b424d68898398fe3cab2d0, type: 3}
      m_Width: 192
      m_Height: 192
      m_Kind: 1
      m_SubKind: 
    - m_Textures:
      - {fileID: 2800000, guid: fe689abc1067e4869a58c87d14482078, type: 3}
      m_Width: 144
      m_Height: 144
      m_Kind: 1
      m_SubKind: 
    - m_Textures:
      - {fileID: 2800000, guid: 827b731c62d8d42c093899fa44179bb2, type: 3}
      m_Width: 96
      m_Height: 96
      m_Kind: 1
      m_SubKind: 
    - m_Textures:
      - {fileID: 2800000, guid: d85ccead4ae714b0682b281b94267e7f, type: 3}
      m_Width: 72
      m_Height: 72
      m_Kind: 1
      m_SubKind: 
    - m_Textures:
      - {fileID: 2800000, guid: 6fae8ff752f494bacb3c562bed7dea2d, type: 3}
      m_Width: 48
      m_Height: 48
      m_Kind: 1
      m_SubKind: 
    - m_Textures:
      - {fileID: 2800000, guid: 98e9bf2eec31e492d858fd08e8223ca4, type: 3}
      m_Width: 36
      m_Height: 36
      m_Kind: 1
      m_SubKind: 
    - m_Textures: []
      m_Width: 432
      m_Height: 432
      m_Kind: 2
      m_SubKind: 
    - m_Textures: []
      m_Width: 324
      m_Height: 324
      m_Kind: 2
      m_SubKind: 
    - m_Textures: []
      m_Width: 216
      m_Height: 216
      m_Kind: 2
      m_SubKind: 
    - m_Textures: []
      m_Width: 162
      m_Height: 162
      m_Kind: 2
      m_SubKind: 
    - m_Textures: []
      m_Width: 108
      m_Height: 108
      m_Kind: 2
      m_SubKind: 
    - m_Textures: []
      m_Width: 81
      m_Height: 81
      m_Kind: 2
      m_SubKind: 
  - m_BuildTarget: iPhone
    m_Icons:
    - m_Textures:
      - {fileID: 2800000, guid: 50f07d81dcf4c4fbb8b2c326e7d4b6bb, type: 3}
      m_Width: 1024
      m_Height: 1024
      m_Kind: 4
      m_SubKind: App Store
    - m_Textures:
      - {fileID: 2800000, guid: 83a6483f53e5f448a84f14d9e27ee822, type: 3}
      m_Width: 60
      m_Height: 60
      m_Kind: 2
      m_SubKind: iPhone
    - m_Textures:
      - {fileID: 2800000, guid: b3252f95d1a3a4cd58871ff4716e5d8b, type: 3}
      m_Width: 40
      m_Height: 40
      m_Kind: 2
      m_SubKind: iPhone
    - m_Textures:
      - {fileID: 2800000, guid: b3252f95d1a3a4cd58871ff4716e5d8b, type: 3}
      m_Width: 40
      m_Height: 40
      m_Kind: 2
      m_SubKind: iPad
    - m_Textures:
      - {fileID: 2800000, guid: f9da296bf616b458d98a63f8f7557004, type: 3}
      m_Width: 20
      m_Height: 20
      m_Kind: 2
      m_SubKind: iPad
    - m_Textures:
      - {fileID: 2800000, guid: dd034f60ad00b407089fd2248eb2bae0, type: 3}
      m_Width: 87
      m_Height: 87
      m_Kind: 1
      m_SubKind: iPhone
    - m_Textures:
      - {fileID: 2800000, guid: 753491ea5c3de4f928409d7f8e96b80b, type: 3}
      m_Width: 58
      m_Height: 58
      m_Kind: 1
      m_SubKind: iPhone
    - m_Textures:
      - {fileID: 2800000, guid: ead39ea5b70b3401090170549ec78dda, type: 3}
      m_Width: 29
      m_Height: 29
      m_Kind: 1
      m_SubKind: iPhone
    - m_Textures:
      - {fileID: 2800000, guid: 753491ea5c3de4f928409d7f8e96b80b, type: 3}
      m_Width: 58
      m_Height: 58
      m_Kind: 1
      m_SubKind: iPad
    - m_Textures:
      - {fileID: 2800000, guid: ead39ea5b70b3401090170549ec78dda, type: 3}
      m_Width: 29
      m_Height: 29
      m_Kind: 1
      m_SubKind: iPad
    - m_Textures:
      - {fileID: 2800000, guid: e5d044c008db542bf8371f7e7c91bb50, type: 3}
      m_Width: 120
      m_Height: 120
      m_Kind: 3
      m_SubKind: iPhone
    - m_Textures:
      - {fileID: 2800000, guid: b36a145ee04964f5a8fbc998f53ad10f, type: 3}
      m_Width: 80
      m_Height: 80
      m_Kind: 3
      m_SubKind: iPhone
    - m_Textures:
      - {fileID: 2800000, guid: b36a145ee04964f5a8fbc998f53ad10f, type: 3}
      m_Width: 80
      m_Height: 80
      m_Kind: 3
      m_SubKind: iPad
    - m_Textures:
      - {fileID: 2800000, guid: b3252f95d1a3a4cd58871ff4716e5d8b, type: 3}
      m_Width: 40
      m_Height: 40
      m_Kind: 3
      m_SubKind: iPad
    - m_Textures:
      - {fileID: 2800000, guid: 73c9e6fc8fd374b119e143a8bc52bf28, type: 3}
      m_Width: 180
      m_Height: 180
      m_Kind: 0
      m_SubKind: iPhone
    - m_Textures:
      - {fileID: 2800000, guid: e5d044c008db542bf8371f7e7c91bb50, type: 3}
      m_Width: 120
      m_Height: 120
      m_Kind: 0
      m_SubKind: iPhone
    - m_Textures:
      - {fileID: 2800000, guid: 4cbc9362b367d44d58da2b6146f50c17, type: 3}
      m_Width: 167
      m_Height: 167
      m_Kind: 0
      m_SubKind: iPad
    - m_Textures:
      - {fileID: 2800000, guid: 6cb233dc65f0b459daf2ad80d17034da, type: 3}
      m_Width: 152
      m_Height: 152
      m_Kind: 0
      m_SubKind: iPad
    - m_Textures:
      - {fileID: 2800000, guid: 819aa9af392f0436686712974e387eb9, type: 3}
      m_Width: 76
      m_Height: 76
      m_Kind: 0
      m_SubKind: iPad
  m_BuildTargetBatching: []
  m_BuildTargetGraphicsJobs:
  - m_BuildTarget: MacStandaloneSupport
    m_GraphicsJobs: 0
  - m_BuildTarget: Switch
    m_GraphicsJobs: 0
  - m_BuildTarget: MetroSupport
    m_GraphicsJobs: 0
  - m_BuildTarget: AppleTVSupport
    m_GraphicsJobs: 0
  - m_BuildTarget: BJMSupport
    m_GraphicsJobs: 0
  - m_BuildTarget: LinuxStandaloneSupport
    m_GraphicsJobs: 0
  - m_BuildTarget: PS4Player
    m_GraphicsJobs: 0
  - m_BuildTarget: iOSSupport
    m_GraphicsJobs: 0
  - m_BuildTarget: WindowsStandaloneSupport
    m_GraphicsJobs: 0
  - m_BuildTarget: XboxOnePlayer
    m_GraphicsJobs: 0
  - m_BuildTarget: LuminSupport
    m_GraphicsJobs: 0
  - m_BuildTarget: AndroidPlayer
    m_GraphicsJobs: 0
  - m_BuildTarget: WebGLSupport
    m_GraphicsJobs: 0
  m_BuildTargetGraphicsJobMode:
  - m_BuildTarget: PS4Player
    m_GraphicsJobMode: 0
  - m_BuildTarget: XboxOnePlayer
    m_GraphicsJobMode: 0
  m_BuildTargetGraphicsAPIs:
  - m_BuildTarget: AndroidPlayer
    m_APIs: 1500000008000000
    m_Automatic: 0
  m_BuildTargetVRSettings: []
  openGLRequireES31: 0
  openGLRequireES31AEP: 0
  openGLRequireES32: 0
  m_TemplateCustomTags: {}
  mobileMTRendering:
    Android: 1
    iPhone: 1
    tvOS: 1
  m_BuildTargetGroupLightmapEncodingQuality:
  - m_BuildTarget: Standalone
    m_EncodingQuality: 1
  - m_BuildTarget: XboxOne
    m_EncodingQuality: 1
  - m_BuildTarget: PS4
    m_EncodingQuality: 1
  m_BuildTargetGroupLightmapSettings: []
  playModeTestRunnerEnabled: 0
  runPlayModeTestAsEditModeTest: 0
  actionOnDotNetUnhandledException: 1
  enableInternalProfiler: 0
  logObjCUncaughtExceptions: 1
  enableCrashReportAPI: 0
  cameraUsageDescription: Camera access required for target detection and tracking
  locationUsageDescription: 
  microphoneUsageDescription: 
  switchNMETAOverride: 
  switchNetLibKey: 
  switchSocketMemoryPoolSize: 6144
  switchSocketAllocatorPoolSize: 128
  switchSocketConcurrencyLimit: 14
  switchScreenResolutionBehavior: 2
  switchUseCPUProfiler: 0
  switchUseGOLDLinker: 0
  switchApplicationID: 0x01004b9000490000
  switchNSODependencies: 
  switchTitleNames_0: 
  switchTitleNames_1: 
  switchTitleNames_2: 
  switchTitleNames_3: 
  switchTitleNames_4: 
  switchTitleNames_5: 
  switchTitleNames_6: 
  switchTitleNames_7: 
  switchTitleNames_8: 
  switchTitleNames_9: 
  switchTitleNames_10: 
  switchTitleNames_11: 
  switchTitleNames_12: 
  switchTitleNames_13: 
  switchTitleNames_14: 
  switchPublisherNames_0: 
  switchPublisherNames_1: 
  switchPublisherNames_2: 
  switchPublisherNames_3: 
  switchPublisherNames_4: 
  switchPublisherNames_5: 
  switchPublisherNames_6: 
  switchPublisherNames_7: 
  switchPublisherNames_8: 
  switchPublisherNames_9: 
  switchPublisherNames_10: 
  switchPublisherNames_11: 
  switchPublisherNames_12: 
  switchPublisherNames_13: 
  switchPublisherNames_14: 
  switchIcons_0: {fileID: 0}
  switchIcons_1: {fileID: 0}
  switchIcons_2: {fileID: 0}
  switchIcons_3: {fileID: 0}
  switchIcons_4: {fileID: 0}
  switchIcons_5: {fileID: 0}
  switchIcons_6: {fileID: 0}
  switchIcons_7: {fileID: 0}
  switchIcons_8: {fileID: 0}
  switchIcons_9: {fileID: 0}
  switchIcons_10: {fileID: 0}
  switchIcons_11: {fileID: 0}
  switchIcons_12: {fileID: 0}
  switchIcons_13: {fileID: 0}
  switchIcons_14: {fileID: 0}
  switchSmallIcons_0: {fileID: 0}
  switchSmallIcons_1: {fileID: 0}
  switchSmallIcons_2: {fileID: 0}
  switchSmallIcons_3: {fileID: 0}
  switchSmallIcons_4: {fileID: 0}
  switchSmallIcons_5: {fileID: 0}
  switchSmallIcons_6: {fileID: 0}
  switchSmallIcons_7: {fileID: 0}
  switchSmallIcons_8: {fileID: 0}
  switchSmallIcons_9: {fileID: 0}
  switchSmallIcons_10: {fileID: 0}
  switchSmallIcons_11: {fileID: 0}
  switchSmallIcons_12: {fileID: 0}
  switchSmallIcons_13: {fileID: 0}
  switchSmallIcons_14: {fileID: 0}
  switchManualHTML: 
  switchAccessibleURLs: 
  switchLegalInformation: 
  switchMainThreadStackSize: 1048576
  switchPresenceGroupId: 0x01004b9000490000
  switchLogoHandling: 0
  switchReleaseVersion: 0
  switchDisplayVersion: 1.0.0
  switchStartupUserAccount: 0
  switchTouchScreenUsage: 0
  switchSupportedLanguagesMask: 0
  switchLogoType: 0
  switchApplicationErrorCodeCategory: 
  switchUserAccountSaveDataSize: 0
  switchUserAccountSaveDataJournalSize: 0
  switchApplicationAttribute: 0
  switchCardSpecSize: 4
  switchCardSpecClock: 25
  switchRatingsMask: 0
  switchRatingsInt_0: 0
  switchRatingsInt_1: 0
  switchRatingsInt_2: 0
  switchRatingsInt_3: 0
  switchRatingsInt_4: 0
  switchRatingsInt_5: 0
  switchRatingsInt_6: 0
  switchRatingsInt_7: 0
  switchRatingsInt_8: 0
  switchRatingsInt_9: 0
  switchRatingsInt_10: 0
  switchRatingsInt_11: 0
  switchRatingsInt_12: 0
  switchLocalCommunicationIds_0: 0x01004b9000490000
  switchLocalCommunicationIds_1: 
  switchLocalCommunicationIds_2: 
  switchLocalCommunicationIds_3: 
  switchLocalCommunicationIds_4: 
  switchLocalCommunicationIds_5: 
  switchLocalCommunicationIds_6: 
  switchLocalCommunicationIds_7: 
  switchParentalControl: 0
  switchAllowsScreenshot: 1
  switchAllowsVideoCapturing: 1
  switchAllowsRuntimeAddOnContentInstall: 0
  switchDataLossConfirmation: 0
  switchUserAccountLockEnabled: 0
  switchSystemResourceMemory: 16777216
  switchSupportedNpadStyles: 3
  switchNativeFsCacheSize: 32
  switchIsHoldTypeHorizontal: 0
  switchSupportedNpadCount: 8
  switchSocketConfigEnabled: 0
  switchTcpInitialSendBufferSize: 32
  switchTcpInitialReceiveBufferSize: 64
  switchTcpAutoSendBufferSizeMax: 256
  switchTcpAutoReceiveBufferSizeMax: 256
  switchUdpSendBufferSize: 9
  switchUdpReceiveBufferSize: 42
  switchSocketBufferEfficiency: 4
  switchSocketInitializeEnabled: 1
  switchNetworkInterfaceManagerInitializeEnabled: 1
  switchPlayerConnectionEnabled: 1
  ps4NPAgeRating: 12
  ps4NPTitleSecret: 
  ps4NPTrophyPackPath: 
  ps4ParentalLevel: 1
  ps4ContentID: ED1633-NPXX51362_00-0000000000000000
  ps4Category: 0
  ps4MasterVersion: 01.00
  ps4AppVersion: 01.00
  ps4AppType: 0
  ps4ParamSfxPath: 
  ps4VideoOutPixelFormat: 0
  ps4VideoOutInitialWidth: 1920
  ps4VideoOutBaseModeInitialWidth: 1920
  ps4VideoOutReprojectionRate: 120
  ps4PronunciationXMLPath: 
  ps4PronunciationSIGPath: 
  ps4BackgroundImagePath: 
  ps4StartupImagePath: 
  ps4StartupImagesFolder: 
  ps4IconImagesFolder: 
  ps4SaveDataImagePath: 
  ps4SdkOverride: 
  ps4BGMPath: 
  ps4ShareFilePath: 
  ps4ShareOverlayImagePath: 
  ps4PrivacyGuardImagePath: 
  ps4ExtraSceSysFile: 
  ps4NPtitleDatPath: 
  ps4RemotePlayKeyAssignment: -1
  ps4RemotePlayKeyMappingDir: 
  ps4PlayTogetherPlayerCount: 0
  ps4EnterButtonAssignment: 1
  ps4ApplicationParam1: 0
  ps4ApplicationParam2: 0
  ps4ApplicationParam3: 0
  ps4ApplicationParam4: 0
  ps4DownloadDataSize: 0
  ps4GarlicHeapSize: 2048
  ps4ProGarlicHeapSize: 2560
  playerPrefsMaxSize: 32768
  ps4Passcode: frAQBc8Wsa1xVPfvJcrgRYwTiizs2trQ
  ps4pnSessions: 1
  ps4pnPresence: 1
  ps4pnFriends: 1
  ps4pnGameCustomData: 1
  playerPrefsSupport: 0
  enableApplicationExit: 0
  resetTempFolder: 1
  restrictedAudioUsageRights: 0
  ps4UseResolutionFallback: 0
  ps4ReprojectionSupport: 0
  ps4UseAudio3dBackend: 0
  ps4UseLowGarlicFragmentationMode: 1
  ps4SocialScreenEnabled: 0
  ps4ScriptOptimizationLevel: 3
  ps4Audio3dVirtualSpeakerCount: 14
  ps4attribCpuUsage: 0
  ps4PatchPkgPath: 
  ps4PatchLatestPkgPath: 
  ps4PatchChangeinfoPath: 
  ps4PatchDayOne: 0
  ps4attribUserManagement: 0
  ps4attribMoveSupport: 0
  ps4attrib3DSupport: 0
  ps4attribShareSupport: 0
  ps4attribExclusiveVR: 0
  ps4disableAutoHideSplash: 0
  ps4videoRecordingFeaturesUsed: 0
  ps4contentSearchFeaturesUsed: 0
  ps4CompatibilityPS5: 0
  ps4GPU800MHz: 1
  ps4attribEyeToEyeDistanceSettingVR: 0
  ps4IncludedModules: []
  ps4attribVROutputEnabled: 0
  monoEnv: 
  splashScreenBackgroundSourceLandscape: {fileID: 0}
  splashScreenBackgroundSourcePortrait: {fileID: 0}
  blurSplashScreenBackground: 1
  spritePackerPolicy: 
  webGLMemorySize: 256
  webGLExceptionSupport: 1
  webGLNameFilesAsHashes: 0
  webGLDataCaching: 0
  webGLDebugSymbols: 0
  webGLEmscriptenArgs: 
  webGLModulesDirectory: 
  webGLTemplate: APPLICATION:Default
  webGLAnalyzeBuildSize: 0
  webGLUseEmbeddedResources: 0
  webGLCompressionFormat: 1
  webGLWasmArithmeticExceptions: 0
  webGLLinkerTarget: 0
  webGLThreadsSupport: 0
  webGLDecompressionFallback: 0
  scriptingDefineSymbols:
    4: VUFORIA_IOS_SETTINGS
    7: VUFORIA_ANDROID_SETTINGS
    14: VUFORIA_WSA_SETTINGS
  platformArchitecture:
    iPhone: 1
  scriptingBackend:
    Android: 0
    Standalone: 0
    WP8: 2
    WebGL: 1
    WebPlayer: 0
    Windows Store Apps: 1
    iPhone: 1
  il2cppCompilerConfiguration: {}
  managedStrippingLevel: {}
  incrementalIl2cppBuild:
    iPhone: 1
  allowUnsafeCode: 0
  useDeterministicCompilation: 1
  additionalIl2CppArgs: 
  scriptingRuntimeVersion: 1
  gcIncremental: 0
  gcWBarrierValidation: 0
  apiCompatibilityLevelPerPlatform: {}
  m_RenderingPath: 1
  m_MobileRenderingPath: 1
  metroPackageName: Vuforia.Engine.VuforiaEngine
  metroPackageVersion: 9.4.0.0
  metroCertificatePath: Assets\WSATestCertificate.pfx
  metroCertificatePassword: 
  metroCertificateSubject: Vuforia
  metroCertificateIssuer: Vuforia
  metroCertificateNotAfter: 80a428773e1cd501
  metroApplicationDescription: Vuforia Engine
  wsaImages:
    65636: Assets/Common/Icons/UWP/StoreLogo.scale-100.png
    65661: Assets/Common/Icons/UWP/StoreLogo.scale-125.png
    65686: Assets/Common/Icons/UWP/StoreLogo.scale-150.png
    65736: Assets/Common/Icons/UWP/StoreLogo.scale-200.png
    65936: Assets/Common/Icons/UWP/StoreLogo.scale-400.png
    131172: Assets/Common/Icons/UWP/SplashScreen.scale-100.png
    131197: Assets/Common/Icons/UWP/SplashScreen.scale-125.png
    131222: Assets/Common/Icons/UWP/SplashScreen.scale-150.png
    131272: Assets/Common/Icons/UWP/SplashScreen.scale-200.png
    2031632: Assets/Common/Icons/UWP/Square44x44Logo.targetsize-16.png
    2031640: Assets/Common/Icons/UWP/Square44x44Logo.targetsize-24.png
    2031648: Assets/Common/Icons/UWP/Square44x44Logo.targetsize-32.png
    2031664: Assets/Common/Icons/UWP/Square44x44Logo.targetsize-48.png
    2031716: Assets/Common/Icons/UWP/Square44x44Logo.scale-100.png
    2031741: Assets/Common/Icons/UWP/Square44x44Logo.scale-125.png
    2031766: Assets/Common/Icons/UWP/Square44x44Logo.scale-150.png
    2031816: Assets/Common/Icons/UWP/Square44x44Logo.scale-200.png
    2031872: Assets/Common/Icons/UWP/Square44x44Logo.targetsize-256.png
    2032016: Assets/Common/Icons/UWP/Square44x44Logo.scale-400.png
    2162788: Assets/Common/Icons/UWP/Square150x150Logo.scale-100.png
    2162813: Assets/Common/Icons/UWP/Square150x150Logo.scale-125.png
    2162838: Assets/Common/Icons/UWP/Square150x150Logo.scale-150.png
    2162888: Assets/Common/Icons/UWP/Square150x150Logo.scale-200.png
    2163088: Assets/Common/Icons/UWP/Square150x150Logo.scale-400.png
    2293860: Assets/Common/Icons/UWP/Wide310x150Logo.scale-100.png
    2293885: Assets/Common/Icons/UWP/Wide310x150Logo.scale-125.png
    2293910: Assets/Common/Icons/UWP/Wide310x150Logo.scale-150.png
    2293960: Assets/Common/Icons/UWP/Wide310x150Logo.scale-200.png
    2294160: Assets/Common/Icons/UWP/Wide310x150Logo.scale-400.png
  metroTileShortName: Vuforia Engine
  metroTileShowName: 0
  metroMediumTileShowName: 1
  metroLargeTileShowName: 0
  metroWideTileShowName: 1
  metroSupportStreamingInstall: 0
  metroLastRequiredScene: 0
  metroDefaultTileSize: 1
  metroTileForegroundText: 1
  metroTileBackgroundColor: {r: 0.4117647, g: 0.7490196, b: 0.2901961, a: 1}
  metroSplashScreenBackgroundColor: {r: 0, g: 0, b: 0, a: 1}
  metroSplashScreenUseBackgroundColor: 1
  platformCapabilities:
    WindowsStoreApps:
      EnterpriseAuthentication: False
      OfflineMapsManagement: False
      HumanInterfaceDevice: False
      Location: False
      Chat: False
      Bluetooth: False
      AllJoyn: False
      MusicLibrary: False
      LowLevelDevices: False
      PrivateNetworkClientServer: False
      InternetClientServer: False
      VideosLibrary: False
      Objects3D: False
      RemoteSystem: False
      BlockedChatMessages: False
      PhoneCall: False
      UserDataTasks: False
      Appointments: False
      SystemManagement: False
      SpatialPerception: False
      Microphone: False
      SharedUserCertificates: False
      InputInjectionBrokered: False
      PicturesLibrary: False
      RemovableStorage: False
      WebCam: True
      VoipCall: False
      UserAccountInformation: False
      UserNotificationListener: False
      PhoneCallHistoryPublic: False
      PointOfService: False
      RecordedCallsFolder: False
      Contacts: False
      Proximity: False
      InternetClient: True
      CodeGeneration: False
      BackgroundMediaPlayback: False
  metroTargetDeviceFamilies:
    Desktop: False
    Holographic: False
    IoT: False
    IoTHeadless: False
    Mobile: False
    Team: False
    Xbox: False
  metroFTAName: 
  metroFTAFileTypes: []
  metroProtocolName: 
  XboxOneProductId: 
  XboxOneUpdateKey: 
  XboxOneSandboxId: 
  XboxOneContentId: 
  XboxOneTitleId: 
  XboxOneSCId: 
  XboxOneGameOsOverridePath: 
  XboxOnePackagingOverridePath: 
  XboxOneAppManifestOverridePath: 
  XboxOneVersion: 1.0.0.0
  XboxOnePackageEncryption: 0
  XboxOnePackageUpdateGranularity: 2
  XboxOneDescription: 
  XboxOneLanguage:
  - enus
  XboxOneCapability: []
  XboxOneGameRating: {}
  XboxOneIsContentPackage: 0
  XboxOneEnableGPUVariability: 0
  XboxOneSockets: {}
  XboxOneSplashScreen: {fileID: 0}
  XboxOneAllowedProductIds: []
  XboxOnePersistentLocalStorageSize: 0
  XboxOneXTitleMemory: 8
  XboxOneOverrideIdentityName: 
  XboxOneOverrideIdentityPublisher: 
  vrEditorSettings:
    daydream:
      daydreamIconForeground: {fileID: 0}
      daydreamIconBackground: {fileID: 0}
  cloudServicesEnabled: {}
  luminIcon:
    m_Name: 
    m_ModelFolderPath: 
    m_PortalFolderPath: 
  luminCert:
    m_CertPath: 
    m_SignPackage: 1
  luminIsChannelApp: 0
  luminVersion:
    m_VersionCode: 94
    m_VersionName: 9.4
  apiCompatibilityLevel: 3
  cloudProjectId: 
  framebufferDepthMemorylessMode: 0
  projectName: 
  organizationId: 
  cloudEnabled: 0
  enableNativePlatformBackendsForNewInputSystem: 0
  disableOldInputManagerSupport: 0
  legacyClampBlendShapeWeights: 1
  virtualTexturingSupportEnabled: 0
